commit 923f77c605867e27c64846eae7151d70ac88fa23
Author: Andrew Tsai <tsai.tsunghua@gmail.com>
Date:   Mon May 31 17:34:30 2021 +0800

    There is a bug of alpha blur.

commit f8f396390d239a2df98d2a63c1408054d0ed4cf5
Author: Andrew Tsai <tsai.tsunghua@gmail.com>
Date:   Thu May 27 17:12:03 2021 +0800

    Use makefile to build the cpu version.

commit 4f3a8f0289176892372a2afd9bb6ce25e601d7ec
Author: Cloud Hsu <cloudhsu921@gmail.com>
Date:   Tue May 25 16:03:42 2021 +0800

    Add function enable/disable gesture in avatar.

commit 6166ccc71bf3bc8800866e5863b62c2120ef39d0
Author: Cloud Hsu <cloudhsu921@gmail.com>
Date:   Mon May 24 14:13:00 2021 +0800

    Add body information in hand_mouse_server.

commit 023fc54937b9f8f2d0302e545a11ebc69106ac16
Author: sis10011 <victor_hsieh@sis.com>
Date:   Fri May 21 15:16:38 2021 +0800

    gaussian blur before binarization

commit 3d6f0e1e1af3c2a9d3b407f4252bd590219de103
Author: Cloud Hsu <cloudhsu921@gmail.com>
Date:   Wed May 19 14:27:04 2021 +0800

    Add body information in avatar.
    Add open/close flag in avatar.

commit fe8b79518aadfc946f49e7c6f2ae2eaed8d6d729
Author: sis10011 <victor_hsieh@sis.com>
Date:   Wed May 19 13:14:03 2021 +0800

    refine code

commit 06ec2ec5515421e4cfeca0cd1fccf429f90f8165
Author: sis10011 <victor_hsieh@sis.com>
Date:   Wed May 19 11:11:41 2021 +0800

    binarization in opencv way, reduced 6~7ms reduced 6~7 ms than gpu version, 23 ms in release mode

commit d7cb5d675253f8efdec758869d740daacd4bc6f7
Author: sis10011 <victor_hsieh@sis.com>
Date:   Wed May 19 10:23:17 2021 +0800

    fixed binarization

commit 0cc4616875f945150bac4fefaae1f96cea347c21
Author: Andrew Tsai <tsai.tsunghua@gmail.com>
Date:   Wed May 19 09:58:04 2021 +0800

    Add wrapper for SharedMatting.

commit 8fb0ad508efc72d11721db899a06d17a281f3a2b
Author: sis10011 <victor_hsieh@sis.com>
Date:   Tue May 18 14:04:47 2021 +0800

    divided trimap from shared matting, 20ms in release mode, 30ms in debug mode

commit a50b08670f9fc9e7901dc6270504191ef5020155
Author: sis10011 <victor_hsieh@sis.com>
Date:   Tue May 18 13:26:39 2021 +0800

    17 ms in release mode, 31 ms in debug mode

commit 1b5da9d32a662d14619085b3632d4a982c52fd94
Author: sis10011 <victor_hsieh@sis.com>
Date:   Fri May 14 18:25:49 2021 +0800

    first commit for fastsharedmatting

commit 9c6e30fde44b01cfefd1adf3eec13345dec37f4e
Author: sis10011 <victor_hsieh@sis.com>
Date:   Fri May 14 14:27:00 2021 +0800

    add width, height, channel into kernel function

commit dc74bdc805679096902f1c286e3fb37da941b85c
Author: sis10011 <victor_hsieh@sis.com>
Date:   Wed May 12 14:29:56 2021 +0800

    add width, height, channel into kernel function

commit a25b1ef36f3ebbf3d91003570d3215ff3806cec5
Author: Andrew Tsai <tsai.tsunghua@gmail.com>
Date:   Wed May 12 13:41:36 2021 +0800

    Add setImage() and setTrimap().

commit b089d0e8c5d1be919f15ad3acbdd6d3b0b3d227e
Author: Andrew Tsai <tsai.tsunghua@gmail.com>
Date:   Wed May 12 11:20:57 2021 +0800

    Use imageData to replace data variable.

commit 7db453942b51421b1b6be797e31afb9d1758ce1f
Author: sis10011 <victor_hsieh@sis.com>
Date:   Wed May 12 10:30:32 2021 +0800

    30 ms in Debug mode, 16~20 ms in release mode in victor computer

commit 2117a5b1e2c33985fcdb5a98cd1092e3e633a71a
Author: sis10011 <victor_hsieh@sis.com>
Date:   Wed May 12 09:14:58 2021 +0800

    remove obj

commit c3149719459299594c4f748b1606e819fa7fe5ea
Author: sis10011 <victor_hsieh@sis.com>
Date:   Wed May 12 09:14:16 2021 +0800

    restart shared matting gpu version

commit 3db40033605543921f947dc8dbf1d238e6881ff2
Author: Andrew Tsai <tsai.tsunghua@gmail.com>
Date:   Tue May 11 16:52:19 2021 +0800

    Suport single-person matting.

commit 74b14c46ac0767162f1f8866cd74677650f2ea8a
Merge: adb2e48 3c60ea1
Author: Tyler Tsou <tylertsou@gmail.com>
Date:   Mon May 10 15:44:10 2021 +0800

    Merge branch 'master' of https://bitbucket.org/tsaith/skyeye

commit adb2e48ea38f049d5c36f2c724654999fcac7fc8
Author: Tyler Tsou <tylertsou@gmail.com>
Date:   Mon May 10 15:43:42 2021 +0800

    add comments of setting exposure value

commit 3c60ea16ce267c9ded3495d39b21580e2aecb9a8
Merge: 69289d7 c407a89
Author: sis10011 <victor_hsieh@sis.com>
Date:   Mon May 10 15:07:30 2021 +0800

    Merge branch 'master' of https://bitbucket.org/tsaith/skyeye

commit 69289d74aca21609540c85164410a5e28ffa6a42
Author: sis10011 <victor_hsieh@sis.com>
Date:   Mon May 10 15:07:00 2021 +0800

    using simple opencl builder

commit c407a89ec2b9aa8246115af14ad6b6c3d95ade8a
Author: Tyler Tsou <tylertsou@gmail.com>
Date:   Mon May 10 14:56:52 2021 +0800

    fix auto_exposure setting on opencv 4

commit eb1f3d844e7f6fe155b451eacdd88dcf85169cf4
Author: sis10011 <victor_hsieh@sis.com>
Date:   Mon May 10 14:02:49 2021 +0800

    move const variable to kernel file.

commit 726498177d31720210e560935abbbc412405a2d1
Author: sis10011 <victor_hsieh@sis.com>
Date:   Mon May 10 13:48:40 2021 +0800

    matte time 16~18ms

commit 89dfd9c85e32f9f106ba8b425bca8038c3974f0f
Author: sis10011 <victor_hsieh@sis.com>
Date:   Mon May 10 11:49:35 2021 +0800

    move const variable into typedef.h

commit b3a64500fa27fce51fd0e18101a2adff6c2fa736
Author: sis10011 <victor_hsieh@sis.com>
Date:   Mon May 10 11:32:09 2021 +0800

    add width, height, channels into kernel function

commit 8e9772aec3dd3034cb0b2a04359fb8ca8852bd3a
Author: sis10011 <victor_hsieh@sis.com>
Date:   Mon May 10 10:19:03 2021 +0800

    first commit

commit c1bb1b8eadd4aae68e0d0ee4825fbcba3d4d3f4a
Author: Andrew Tsai <tsai.tsunghua@gmail.com>
Date:   Fri May 7 18:09:09 2021 +0800

    Use floodFill() to fill the holes within body.

commit f425a4cbd792440290a600e95411b69efb21d18b
Author: Andrew Tsai <tsai.tsunghua@gmail.com>
Date:   Fri May 7 16:44:05 2021 +0800

    Use background subtraction for matting.

commit 1ade09732741a1dac958a30aad161897cdca10c4
Author: Cloud Hsu <cloudhsu921@gmail.com>
Date:   Fri May 7 16:05:42 2021 +0800

    Fix bug in avatar_handler.

commit 0dc12250dd77531e0dff743c893c6a9d2ae28cbe
Author: Cloud Hsu <cloudhsu921@gmail.com>
Date:   Fri May 7 15:33:49 2021 +0800

    Add hand gesture in avatar.

commit 5f2814d80fd09eea0f0fde80f901020e878fdc8c
Author: Andrew Tsai <tsai.tsunghua@gmail.com>
Date:   Thu May 6 15:55:46 2021 +0800

    Add air_writing.

commit b763bbede6bfa3254f7d60b8e34bab74d3e08c3b
Merge: 700c7f9 75b7e22
Author: Andrew Tsai <tsai.tsunghua@gmail.com>
Date:   Thu May 6 13:52:47 2021 +0800

    Merge branch 'master' of bitbucket.org:tsaith/skyeye

commit 700c7f96056b80006424a3eef40ffcbb2577d5ec
Author: Andrew Tsai <tsai.tsunghua@gmail.com>
Date:   Thu May 6 13:52:31 2021 +0800

    Add WritingBoard.

commit 75b7e226c5a29aeed3c23806dc6693769c8ea9c8
Author: sis10011 <victor_hsieh@sis.com>
Date:   Thu May 6 11:29:47 2021 +0800

    fixed exception in gather

commit 9bc4bfcf470959148450b9acdb088e727c66d565
Author: Andrew Tsai <tsai.tsunghua@gmail.com>
Date:   Wed May 5 13:15:59 2021 +0800

    Refactor codes.

commit 43a793121ea1f7d29165ee66dc7e0e2bd2ae6a8d
Author: Andrew Tsai <tsai.tsunghua@gmail.com>
Date:   Wed May 5 13:00:47 2021 +0800

    Add localSmotthGpu().

commit e66da35b8e41255353049009c617cebadae76b71
Merge: 81fef6b 50651ba
Author: Andrew Tsai <tsai.tsunghua@gmail.com>
Date:   Tue May 4 17:49:09 2021 +0800

    Merge branch 'master' of bitbucket.org:tsaith/skyeye

commit 81fef6b8ff2ea19533a14f36ccbc45f29a46bc23
Author: Andrew Tsai <tsai.tsunghua@gmail.com>
Date:   Tue May 4 17:48:55 2021 +0800

    Add refineGpu().

commit 50651ba71ef73af3fc43165602460f6d1fa666b4
Author: Cloud Hsu <cloudhsu921@gmail.com>
Date:   Tue May 4 17:19:16 2021 +0800

    Add some information.

commit 49810ba0ea39cf43ab4f92466c5f108a1216fd13
Author: Andrew Tsai <tsai.tsunghua@gmail.com>
Date:   Tue May 4 16:53:28 2021 +0800

    Add gatheringGpu().

commit e49125ccc1c8ea68cec0e95bd49f93bd8b09616e
Merge: 10a8df4 1210adb
Author: Andrew Tsai <tsai.tsunghua@gmail.com>
Date:   Tue May 4 14:30:02 2021 +0800

    Merge branch 'master' of bitbucket.org:tsaith/skyeye

commit 10a8df4050729d5bcb6accf039bf2ac58363df58
Author: Andrew Tsai <tsai.tsunghua@gmail.com>
Date:   Tue May 4 14:29:47 2021 +0800

    Add sampleGpu().

commit 1210adb98ea19bb97ee5662e1ebc1db640feacbb
Author: Cloud Hsu <cloudhsu921@gmail.com>
Date:   Tue May 4 11:42:08 2021 +0800

    Update document.

commit e54953b9f8787e9e5363dbb9c70657aaa3d2f037
Author: Cloud Hsu <cloudhsu921@gmail.com>
Date:   Tue May 4 11:38:32 2021 +0800

    Add setup readme.

commit f47fca96faea9cb0baf41270d68a250c24d330d6
Author: sis10011 <victor_hsieh@sis.com>
Date:   Mon May 3 09:17:36 2021 +0800

    delete obj file

commit 3a1a26e0cc24f64c9f0e93655e3325a45f6a5826
Author: sis10011 <victor_hsieh@sis.com>
Date:   Mon May 3 09:16:19 2021 +0800

    first commit

commit 9b8322d4bbd5e985440199bd161217c395df9bed
Author: Andrew Tsai <tsai.tsunghua@gmail.com>
Date:   Thu Apr 29 16:45:19 2021 +0800

    Add SampleGpu().

commit f22aa0ae2965d1bda63fb9a746596af996949db2
Author: Andrew Tsai <tsai.tsunghua@gmail.com>
Date:   Thu Apr 29 15:58:19 2021 +0800

    Do not use pass-by-reference.

commit 726bc5627fb64830fb30879bed56df6a28820260
Author: Andrew Tsai <tsai.tsunghua@gmail.com>
Date:   Wed Apr 28 17:54:29 2021 +0800

    Initialize OpenCl.

commit 959ddf691dde5c70be180555a859346a0e425e7d
Author: Andrew Tsai <tsai.tsunghua@gmail.com>
Date:   Wed Apr 28 15:54:01 2021 +0800

    Add setTrimapData().

commit 3f1a05efb67475beceda033de179ed9f9e6ab5ba
Author: Andrew Tsai <tsai.tsunghua@gmail.com>
Date:   Wed Apr 28 13:20:48 2021 +0800

    Rewrite the sharedMatting with C syntax.

commit 06eb8d18578571034720c7432365056006cc7d1a
Author: Andrew Tsai <tsai.tsunghua@gmail.com>
Date:   Tue Apr 27 17:46:16 2021 +0800

    Blend the forground of image with white background.

commit a82b813c688b3bc655c528225fc52eab5ca3e364
Author: cloud <cloudhsu921@gmail.com>
Date:   Tue Apr 27 16:05:58 2021 +0800

    Modify path in test_remote_detector_cplus

commit 0ec74a106cb6dc0df2105b2b14a2d7ea7b868a71
Author: cloud <cloudhsu921@gmail.com>
Date:   Tue Apr 27 15:13:44 2021 +0800

    Fix bug in remote_detector

commit a59795412648f773ed878411b8c9257680734e9c
Author: Andrew Tsai <tsai.tsunghua@gmail.com>
Date:   Tue Apr 27 11:35:09 2021 +0800

    Allocate memory for tuples and ftupels.

commit bbfa35f10ce46fb7b772f4d727539848dc539624
Author: Cloud Hsu <cloudhsu921@gmail.com>
Date:   Mon Apr 26 17:01:23 2021 +0800

    Add QT DLL remote_detect project and test tools.

commit 921b32c40c2f3f8824d059d011141fb7b620e980
Author: Andrew Tsai <tsai.tsunghua@gmail.com>
Date:   Mon Apr 26 14:41:44 2021 +0800

    Write image data to buffer.

commit ee2984ea5eb39eefc78d50e93a7d7f2a611e4a68
Author: Cloud Hsu <cloudhsu921@gmail.com>
Date:   Fri Apr 23 16:37:26 2021 +0800

    Fix MAX_DGRAM to 8192

commit a89f82a494daa94a9107c6224f781952329e44aa
Author: Cloud Hsu <cloudhsu921@gmail.com>
Date:   Thu Apr 22 13:36:00 2021 +0800

    Add remote cv test sample on windows.

commit 43b2337919267b832bc8d13d683ae005de0f0df7
Author: Andrew Tsai <tsai.tsunghua@gmail.com>
Date:   Thu Apr 22 11:08:44 2021 +0800

    Add image_buffer example.

commit f3bdcde9433b544e141c95990c958755b90edc66
Merge: add67c6 3710df5
Author: sis10011 <victor_hsieh@sis.com>
Date:   Wed Apr 21 11:36:58 2021 +0800

    Merge branch 'master' of https://bitbucket.org/tsaith/skyeye, add opencl_color2binary

commit add67c629c6be6fedb7bfbf20a54112259f710f1
Author: sis10011 <victor_hsieh@sis.com>
Date:   Wed Apr 21 11:36:29 2021 +0800

    first commit for opencl_color2binary

commit 3710df508134e3cfa0e309861e73c37bddc0025e
Author: Andrew Tsai <tsai.tsunghua@gmail.com>
Date:   Wed Apr 21 10:56:04 2021 +0800

    Refactor codes.

commit c3c7ca45887b657c46ad9255192a0a01ee9ac506
Author: Andrew Tsai <tsai.tsunghua@gmail.com>
Date:   Wed Apr 21 10:37:28 2021 +0800

    Add utilities of OpenCL.

commit f2ab98e204747911237c5be3899d6855e03bbb8e
Author: sis10011 <victor_hsieh@sis.com>
Date:   Mon Apr 19 15:25:33 2021 +0800

    first commit

commit 9bd1c4452fe5152b9e4f93809000d33095391c94
Author: Andrew Tsai <tsai.tsunghua@gmail.com>
Date:   Mon Apr 19 13:28:56 2021 +0800

    Add examples.

commit 243bb76835c7fad06ae825fc5e4c9b7a10f19ae5
Author: Andrew Tsai <tsai.tsunghua@gmail.com>
Date:   Tue Apr 13 14:19:59 2021 +0800

    Query device detals.

commit ec5e0b508d2f6ebb8a70f93bfa3c457de5aae04a
Author: Andrew Tsai <tsai.tsunghua@gmail.com>
Date:   Tue Apr 13 13:43:01 2021 +0800

    Add OpenCL examples.

commit b00f2df45ebefb3963c42e33d21b62ab6fdc41de
Author: Cloud Hsu <cloudhsu921@gmail.com>
Date:   Fri Apr 9 09:28:22 2021 +0800

    Fix bug in enable gpu mode.

commit 51f666fd7fb6f8f3ab82eded6b05dcf228d34eeb
Author: Cloud Hsu <cloudhsu921@gmail.com>
Date:   Thu Apr 8 17:04:58 2021 +0800

    Add mediapipe.yaml and gpu support.

commit 78c864eb884fbf971cc6057321bdd40e35fee3b3
Merge: ca0f13b 7db2439
Author: Tyler Tsou <tylertsou@gamil.com>
Date:   Thu Apr 8 10:31:36 2021 +0800

    Merge branch 'master' of https://bitbucket.org/tsaith/skyeye

commit ca0f13b8b1c5d181418740b47e36368c641b2976
Author: Tyler Tsou <tylertsou@gamil.com>
Date:   Thu Apr 8 10:30:52 2021 +0800

    add mediapipe.yaml to switch CPU/GPU, modify image channel of avatar to RGBA for mediapipe GPU version

commit 7db2439a016d633dc49ede396030d469d4638ca3
Author: Andrew Tsai <tsai.tsunghua@gmail.com>
Date:   Wed Apr 7 16:45:07 2021 +0800

    Add shared matting.

commit ec7a270dc4857617d52bbac8bab2d1b37eeba958
Author: Andrew Tsai <tsai.tsunghua@gmail.com>
Date:   Tue Mar 30 14:27:31 2021 +0800

    Add BackgroundMattingV2().

commit 06656ed907531b7843912d7cea381c78362e2acf
Merge: a3ec5f6 3b5c430
Author: Andrew Tsai <tsai.tsunghua@gmail.com>
Date:   Mon Mar 29 16:13:30 2021 +0800

    Merge branch 'master' of bitbucket.org:tsaith/skyeye

commit a3ec5f6a6a0dbab85afe68de7a38c3cf77c5053e
Author: Andrew Tsai <tsai.tsunghua@gmail.com>
Date:   Mon Mar 29 15:12:53 2021 +0800

    Add background_matting_v2.

commit 3b5c430ef3e19e5f21a628c93c6c492c15ff4b9b
Author: Cloud Hsu <cloudhsu921@gmail.com>
Date:   Wed Mar 24 16:08:15 2021 +0800

    Add avatar_handler.

commit d915cd95464b4d621594eb528ecef791a8b3556e
Merge: a5ac1f7 90f7143
Author: Andrew Tsai <tsai.tsunghua@gmail.com>
Date:   Tue Mar 23 16:53:11 2021 +0800

    Merge branch 'master' of bitbucket.org:tsaith/skyeye

commit a5ac1f7ec686f152f79b62c5b7d73aea8e40a461
Author: Andrew Tsai <tsai.tsunghua@gmail.com>
Date:   Tue Mar 23 16:52:56 2021 +0800

    add a makefile for the test code of matting.

commit 90f7143ba1dd0fa6f40db0c37b0beac12a2f17f0
Author: Cloud Hsu <cloudhsu921@gmail.com>
Date:   Tue Mar 23 16:26:03 2021 +0800

    Add web GUI(holistic and avatar).

commit 16c005cbea93eb4ab96eb61d5cc91d389c627876
Author: sis10011 <victor_hsieh@sis.com>
Date:   Mon Mar 22 13:29:46 2021 +0800

    first commit testMain

commit aa525232e86ecc9095bb36bbedb66221022063ff
Author: sis10011 <victor_hsieh@sis.com>
Date:   Fri Mar 19 14:30:38 2021 +0800

    first commit

commit d21175ac765c5aba76f5053564e49e320bd18152
Author: Andrew Tsai <tsai.tsunghua@gmail.com>
Date:   Fri Mar 19 10:54:51 2021 +0800

    Support consistent distance for head and hand.

commit eab60bc726f41be3cbb73a191e520d3f1ec5e714
Author: Andrew Tsai <tsai.tsunghua@gmail.com>
Date:   Thu Mar 18 16:57:07 2021 +0800

    Add landmark map of face and hand.

commit fe30235de70af778a09f5ce4dbdfeb3568f07f17
Author: Andrew Tsai <tsai.tsunghua@gmail.com>
Date:   Thu Mar 18 16:55:19 2021 +0800

    Add AvatarDetector().

commit 75aa02ada03437d67b90e177bb95dc7fbe8a2f1e
Author: Cloud Hsu <cloudhsu921@gmail.com>
Date:   Thu Mar 18 16:13:26 2021 +0800

    Modify UDP package size to 8192.

commit 97373a113363d1101d558999bc7822160d20ca83
Author: Andrew Tsai <tsai.tsunghua@gmail.com>
Date:   Thu Mar 18 14:58:16 2021 +0800

    Refactor.

commit 8db4616b5063bae965d599afdc46430c09be1ce9
Author: Andrew Tsai <tsai.tsunghua@gmail.com>
Date:   Thu Mar 18 14:56:52 2021 +0800

    Detect head and hands.

commit a19cb88c6932c6c3f422bf2ca5d4401626fde1eb
Author: Andrew Tsai <tsai.tsunghua@gmail.com>
Date:   Wed Mar 17 17:28:58 2021 +0800

    Estimate the quaternion of head.

commit f1069d1a8aff6c42ab8f1bc93c1bc145a28a00f0
Author: Cloud Hsu <cloudhsu921@gmail.com>
Date:   Mon Mar 15 11:45:59 2021 +0800

    Add drop invalid frame

commit e196d01e6fd3f249bf0de1d3c6bd92a7b356fbe8
Author: Cloud Hsu <cloudhsu921@gmail.com>
Date:   Mon Mar 15 10:24:50 2021 +0800

    Add upd_camera

commit ea0bd6f992ba0a69c3f00bae5d88d366a6162b4b
Author: Andrew Tsai <tsai.tsunghua@gmail.com>
Date:   Fri Mar 12 14:25:21 2021 +0800

    Add use_dlib flag.

commit 1845a81c75c64ed92d70d0f50bfdd6cdcf8c45de
Author: Andrew Tsai <tsai.tsunghua@gmail.com>
Date:   Thu Mar 11 14:26:39 2021 +0800

    Test matting.

commit 49de30726c6965dccced3bbb41994ccca952bc18
Author: Andrew Tsai <tsai.tsunghua@gmail.com>
Date:   Thu Mar 11 13:58:09 2021 +0800

    Test the performance of cv::inRange() based on OpenCL.

commit d6a9c02adab92609ef2e6dbc9da42c294480e8a4
Author: Andrew Tsai <tsai.tsunghua@gmail.com>
Date:   Wed Mar 10 16:09:12 2021 +0800

    Add Timer class.

commit df867494ed2cf2de01ad5bff83e835d0d2d4dc73
Author: Andrew Tsai <tsai.tsunghua@gmail.com>
Date:   Tue Mar 9 14:20:46 2021 +0800

    Add some examples of opencl.

commit c0f62b7b550c18bcdbdd9fde8070fcc8c95357b3
Author: Andrew Tsai <tsai.tsunghua@gmail.com>
Date:   Thu Mar 4 11:46:52 2021 +0800

    Erode fg to reduce the green edge.

commit e939b525157b1b5a7c14d0813cd70a07d53dbe3e
Author: Andrew Tsai <tsai.tsunghua@gmail.com>
Date:   Thu Feb 25 16:58:11 2021 +0800

    Add test codes for OpenCL.

commit 8abf510f06fb6dd2bc294d5aad08969297898955
Merge: 18d6446 e90c824
Author: Andrew Tsai <tsai.tsunghua@gmail.com>
Date:   Wed Feb 24 13:50:54 2021 +0800

    Merge branch 'master' of bitbucket.org:tsaith/skyeye

commit 18d64464d81089fd42fd734fcd758a5302c45547
Author: Andrew Tsai <tsai.tsunghua@gmail.com>
Date:   Wed Feb 24 13:50:40 2021 +0800

    Find out the color bounds.

commit e90c82486f45cea6e53a29d0c3eb15df943619b6
Author: TylerTsou <tylertsou@gmail.com>
Date:   Mon Feb 22 16:27:54 2021 +0800

    set default as CPU mode in hand_tracking

commit 2fffc6b0d0b147bef7da48adb90594057b9d9fd5
Author: TylerTsou <tylertsou@gmail.com>
Date:   Mon Feb 22 16:25:40 2021 +0800

    add GPU enable/disable option for camera_decorate

commit df8773b901a1b8aaf47d1e6606fcc7fb1a3c0582
Author: TylerTsou <tylertsou@gmail.com>
Date:   Mon Feb 22 16:19:30 2021 +0800

    add enable/disable GPU mode option by using mediapipe.yaml

commit e229cf7c3b4ac7220f9468986a3ca5ddb6937036
Author: Andrew Tsai <tsai.tsunghua@gmail.com>
Date:   Mon Feb 22 15:36:31 2021 +0800

    Add alpha gradient by smoothing.

commit 9ed3b489eeab362f03d4c46ce58005d6c890d330
Author: Andrew Tsai <tsai.tsunghua@gmail.com>
Date:   Sun Feb 21 18:03:17 2021 +0800

    Add reduce_green().

commit 47aceacc716ffdf820a90c4fd61b0283f49de577
Author: Andrew <tsai.tsunghua@gmail.com>
Date:   Sun Feb 21 16:00:39 2021 +0800

    Can't resize the image for viewing.

commit ca636c1876fcee0bc8b9ecedff7922614caf31ef
Author: Andrew Tsai <tsai.tsunghua@gmail.com>
Date:   Fri Feb 19 15:58:52 2021 +0800

    Obtain alpha from contours.

commit 661b4539f345ad3cbfe330465342a80af0eac7d6
Author: Andrew Tsai <tsai.tsunghua@gmail.com>
Date:   Thu Feb 18 17:01:59 2021 +0800

    Refactor color range matting.

commit 467ca6114afb18b07d5a0d5914ed46719ecd69dc
Author: Andrew Tsai <tsai.tsunghua@gmail.com>
Date:   Thu Feb 4 16:04:49 2021 +0800

    Set default values for color matting.

commit fdea7c1cbb84ec0afafe15992e6826a56e3bd65a
Author: Andrew Tsai <tsai.tsunghua@gmail.com>
Date:   Thu Feb 4 14:52:46 2021 +0800

    Collect data for matting.

commit 27857f897d74ccfbed79175fb67ec99445131814
Author: Andrew Tsai <tsai.tsunghua@gmail.com>
Date:   Tue Feb 2 15:57:00 2021 +0800

    Add CLOSE_FORM matting.

commit 04bb7fba2142e6c4ce57e7f0423d69615035e438
Author: Andrew Tsai <tsai.tsunghua@gmail.com>
Date:   Tue Feb 2 14:19:31 2021 +0800

    Toggle matting.

commit 16c844376c33d26063fa4c6132b51b4ad8dd0e80
Author: Andrew Tsai <tsai.tsunghua@gmail.com>
Date:   Tue Feb 2 13:10:53 2021 +0800

    Add readme.

commit 82e9c0cb57ea1115cdf897c374b7445cf58bf027
Author: Andrew Tsai <tsai.tsunghua@gmail.com>
Date:   Tue Feb 2 10:47:31 2021 +0800

    Save diagnostic images.

commit ce0f3eacbdd287e43a6a12f8dfb8bbca2be5dd9b
Author: Andrew Tsai <tsai.tsunghua@gmail.com>
Date:   Fri Jan 29 15:54:05 2021 +0800

    Apply red mask.

commit 88fa8b47f6720cb7cb45213608f4727f3a8710bb
Author: Andrew Tsai <tsai.tsunghua@gmail.com>
Date:   Thu Jan 28 17:01:46 2021 +0800

    Plot pixel distribution.

commit 82dcb590ab300f3142f40eec1adc30d1089ef316
Author: Cloud Hsu <cloudhsu921@gmail.com>
Date:   Thu Jan 28 16:02:22 2021 +0800

    Add order demo(windows).

commit 7ddafb5851864b84f89e30b54e7da2fb5ba6547d
Author: Cloud Hsu <cloudhsu921@gmail.com>
Date:   Thu Jan 28 11:42:38 2021 +0800

    Add mouse drag.

commit abe79e3495eb214f4642e3215bd6b7e0b3b73a4c
Author: Cloud Hsu <cloudhsu921@gmail.com>
Date:   Wed Jan 27 15:46:15 2021 +0800

    Add test_face.

commit 657b5cf7c1787c951a132c27200a35de266e9489
Author: Cloud Hsu <cloudhsu921@gmail.com>
Date:   Wed Jan 27 11:23:53 2021 +0800

    Remove flip in face_box_hanlder.

commit c7eb299964fcc8919ecc1bca629a0b61c6fb66ab
Author: Cloud Hsu <cloudhsu921@gmail.com>
Date:   Wed Jan 27 11:07:28 2021 +0800

    Add face box handler in hand_mouse_server.

commit f410deea2ece9fa36cab6edf0d69d7e7e19fc054
Author: Cloud Hsu <cloudhsu921@gmail.com>
Date:   Tue Jan 26 10:44:24 2021 +0800

    1. Rename hand_mouse_client to diagnostic_hand
    2. Add depth_intrin property in Camera.
    3. Add depth_scale property in Camera.

commit 1910a297a6e780e57e0070064644e916011e71d4
Author: Cloud Hsu <cloudhsu921@gmail.com>
Date:   Tue Jan 26 09:36:18 2021 +0800

    Add mouse control client.

commit 81d89d77b7cee7c48d4f8d5ce23cfea62d5a72de
Author: id_from_msi_mini_pc <victor_hsieh@sis.com>
Date:   Fri Jan 22 11:09:43 2021 +0800

    first commit

commit 20a338efb5b7ca6960d1fa8adcf2913fbd72e2bb
Author: Cloud Hsu <cloudhsu921@gmail.com>
Date:   Thu Jan 21 16:54:23 2021 +0800

    Add hand server.

commit 0d9a45f8385a3027ca7a14eea6f7c663e3dffc80
Author: Andrew Tsai <tsai.tsunghua@gmail.com>
Date:   Thu Jan 21 16:08:37 2021 +0800

    Add 'none' flag for click_type.

commit 4cb5f5383114850a8164d4f87263560abbfbba6d
Author: Andrew Tsai <tsai.tsunghua@gmail.com>
Date:   Wed Jan 20 14:28:38 2021 +0800

    Label partial face vertices.

commit 60cfdee50a431bdaf2f42fa3f5cab7ae1d0d5b9b
Author: Andrew Tsai <tsai.tsunghua@gmail.com>
Date:   Wed Jan 20 11:14:01 2021 +0800

    Add the gesture of good.

commit 2ad9dd525d7c628a240b1e86ae03d15ae15640e2
Author: Andrew Tsai <tsai.tsunghua@gmail.com>
Date:   Tue Jan 19 15:06:08 2021 +0800

    Support the numeric gestures.

commit b997ed8ee6da37cf4f5df96165f1e6d2c3f5c320
Author: Cloud Hsu <cloudhsu921@gmail.com>
Date:   Tue Jan 19 13:39:40 2021 +0800

    Add face_box in holistic.

commit e319e2be271bbef503f3c3f07cef75c45528a0aa
Author: Andrew Tsai <tsai.tsunghua@gmail.com>
Date:   Mon Jan 18 13:30:38 2021 +0800

    Add max_num_hands to MpHandsDecorate().

commit 0a9da4b6d1e28b550cdc450189956a9053b74aae
Author: Andrew Tsai <tsai.tsunghua@gmail.com>
Date:   Mon Jan 18 11:33:50 2021 +0800

    Apply Kamlan filter to predict the poiter position.

commit e1a93cd2f9445d2ff6067e4b6c1475f550a265f0
Author: Andrew Tsai <tsai.tsunghua@gmail.com>
Date:   Fri Jan 15 17:58:01 2021 +0800

    Simulate mouse usage.

commit 19a906a959dba778639911d4eb1ff71e4f76947f
Merge: 53aa388 33e468f
Author: Cloud Hsu <cloudhsu921@gmail.com>
Date:   Fri Jan 15 13:01:13 2021 +0800

    Merge branch 'master' of https://bitbucket.org/tsaith/skyeye

commit 53aa3885e947221cf80ed9eacec8be9a696bb03b
Author: Cloud Hsu <cloudhsu921@gmail.com>
Date:   Fri Jan 15 12:58:39 2021 +0800

    Rename inputs.yaml to camera_config.yaml.

commit 33e468f64c619f9a49f149e4db64842991c76356
Merge: 06029cc 7622812
Author: TylerTsou <tylertsou@gmail.com>
Date:   Fri Jan 15 10:36:08 2021 +0800

    Merge branch 'master' of bitbucket.org:tsaith/skyeye

commit 06029cc3802e93ba1473ed40da7d5d5a2f36cd06
Author: TylerTsou <tylertsou@gmail.com>
Date:   Fri Jan 15 10:35:37 2021 +0800

    add link of shape_predictor_68_face_landmarks.dat for headpose

commit 7622812c6d23e4153c2cbddf8d1b1632b2e6a010
Author: Cloud Hsu <cloudhsu921@gmail.com>
Date:   Thu Jan 14 17:10:17 2021 +0800

    Modify hand_factory.generate_with_camera

commit 2acf73b5585331802a48afe7f58690441547b8c7
Author: Cloud Hsu <cloudhsu921@gmail.com>
Date:   Thu Jan 14 15:41:27 2021 +0800

    Add boundary check.

commit a9260f3038aa98c82a2393fff7c6e0ec4b3791da
Author: Cloud Hsu <cloudhsu921@gmail.com>
Date:   Thu Jan 14 15:25:51 2021 +0800

    Add mp_3d_hand to support hand_model.
    Add mp_convert to refactor some code.

commit 0cbbb7550fee108f5b75586bcfe90d52410e9aa6
Author: Andrew Tsai <tsai.tsunghua@gmail.com>
Date:   Thu Jan 14 12:53:16 2021 +0800

    Fix a bug of BGR channels for Realsense.

commit b589a33842c4027b6c28a112f0ce7e00fced9144
Author: Andrew Tsai <tsai.tsunghua@gmail.com>
Date:   Thu Jan 14 10:53:43 2021 +0800

    Add flip check and camera type.

commit 46b5301ce44551c91c255952e3039656e3e6c761
Author: Cloud Hsu <cloudhsu921@gmail.com>
Date:   Wed Jan 13 17:19:24 2021 +0800

    Add mp_3d_holistic.

commit 1c3e9b13fb9603c5db44e835a7c63104e9119310
Author: Cloud Hsu <cloudhsu921@gmail.com>
Date:   Wed Jan 13 16:00:42 2021 +0800

    Add the flag of number.

commit 52a10e3118b5c9ef851f89861ea238d853386a46
Merge: 366db29 c5d39e3
Author: Cloud Hsu <cloudhsu921@gmail.com>
Date:   Wed Jan 13 15:17:12 2021 +0800

    Merge branch 'master' of https://bitbucket.org/tsaith/skyeye

commit 366db29b8a85730004673e8b8b2a8176d536db33
Author: Cloud Hsu <cloudhsu921@gmail.com>
Date:   Wed Jan 13 15:16:37 2021 +0800

    Add mp_3d_data.
    property:
    mp_result: source data from mediapipe.
    mp_3d_data: list of [x, y, z] x: 0-1, y:0-1, z: meter
    mp_3d_pixel: list of [x, y, z] x: camera width(ex:0-639), y:camera height(ex:0-479), z:meter

commit c5d39e3bcbc2c71edb48aa0cff7d0c1149fedbaa
Author: Andrew Tsai <tsai.tsunghua@gmail.com>
Date:   Wed Jan 13 15:07:55 2021 +0800

    Remove debug messages.

commit 6b4d20d78e45180ad535eb61e196b8becc6564ac
Author: Andrew Tsai <tsai.tsunghua@gmail.com>
Date:   Wed Jan 13 14:57:42 2021 +0800

    Add hand module.

commit 97942edfd035a27d0c1ca418fd70e07f9911fc73
Author: Andrew Tsai <tsai.tsunghua@gmail.com>
Date:   Wed Jan 13 13:25:04 2021 +0800

    Detect hand gestures.

commit a246a0873a9ce5a3f6dd8f9ea38cb80bc044132d
Author: Andrew Tsai <tsai.tsunghua@gmail.com>
Date:   Mon Jan 11 11:05:56 2021 +0800

    Add the flag of number.

commit 3788af3ec60f55fbe4a752ca46b0f9b0d31b58d5
Author: Cloud Hsu <cloudhsu921@gmail.com>
Date:   Fri Jan 8 14:49:03 2021 +0800

    Add facebox with media pipe.

commit 65b914cbfc128d6b54171ac2879f31c1ae3c4f42
Author: Cloud Hsu <cloudhsu921@gmail.com>
Date:   Fri Jan 8 13:36:13 2021 +0800

    Add hands and face mesh with media pipe.

commit 273c64d2798fac107dcf010f2fb30bd54480e4e6
Author: Cloud Hsu <cloudhsu921@gmail.com>
Date:   Fri Jan 8 11:31:56 2021 +0800

    Add pose and holistic with media pipe.

commit ec556e1380793866f73be32acfc3452d999eeb9b
Author: Cloud Hsu <cloudhsu921@gmail.com>
Date:   Thu Jan 7 13:12:11 2021 +0800

    fix open CV version check, convert to major int

commit fcd83d57990f9e3f76459f70010257b5a7180ec0
Merge: 6445383 0e5b8d7
Author: Andrew Tsai <tsai.tsunghua@gmail.com>
Date:   Wed Jan 6 16:47:22 2021 +0800

    Merge branch 'master' of bitbucket.org:tsaith/skyeye

commit 64453836c20925b89b723350a0e3bbd51f397186
Author: Andrew Tsai <tsai.tsunghua@gmail.com>
Date:   Wed Jan 6 16:47:10 2021 +0800

    Add face mesh and hand detection.

commit 0e5b8d772230faa9a2e9f27c4562897446ffc17f
Author: Tyler Tsou <tylertsou@gmail.com>
Date:   Wed Jan 6 06:38:05 2021 +0000

    modify path to sis

commit fe4e9f934d093c90005c6233e3a77cefeb9f7005
Author: Tyler Tsou <tylertsou@gmail.com>
Date:   Wed Jan 6 06:37:37 2021 +0000

    modify path to sis

commit 4b16df58393b41115d99b87f7fb87480192bdf18
Author: Tyler Tsou <tylertsou@gmail.com>
Date:   Wed Jan 6 06:36:52 2021 +0000

    modify path to sis

commit 749e64073665c02f99ca670ba826caa50393031f
Author: TylerTsou <tylertsou@gmail.com>
Date:   Wed Jan 6 14:24:00 2021 +0800

    fix open CV version check, convert to major int

commit a19912de2af4012430a9d3dede0962efeae6242a
Author: Cloud Hsu <cloudhsu921@gmail.com>
Date:   Tue Jan 5 09:54:03 2021 +0800

    Add mac os support.

commit d9211f7b76b556d4d648ba1aa8a3068bc1b34dae
Author: Cloud Hsu <cloudhsu921@gmail.com>
Date:   Thu Dec 31 16:19:22 2020 +0800

    Add depth_fps.

commit 23b0ee0254bcbf0976f2067bf38fd6421054a550
Author: Andrew Tsai <tsai.tsunghua@gmail.com>
Date:   Thu Dec 31 15:56:55 2020 +0800

    Video streaming based on UDP.

commit 2315e086009346dcb1d3e15a120f3fba9424418f
Author: Cloud Hsu <cloudhsu921@gmail.com>
Date:   Thu Dec 31 14:38:57 2020 +0800

    Refactoring code to support Intel realsense L515.

commit e5298864b3e4ec95f0ef790e51e44978376cd9d4
Author: Andrew Tsai <tsai.tsunghua@gmail.com>
Date:   Wed Dec 30 15:15:48 2020 +0800

    Add the pose and holistic sample for MediaPipe.

commit 32ef4f778eaf14ae25844c50aae9ab05f51c5bc8
Author: Cloud Hsu <cloudhsu921@gmail.com>
Date:   Tue Dec 29 09:25:19 2020 +0800

    Fix class name error.

commit 5ca506def156055e796366fcb5f6195d430a8a3b
Author: Cloud Hsu <cloudhsu921@gmail.com>
Date:   Tue Dec 29 08:53:22 2020 +0800

    Convert tab to space

commit 5e3dbca514134efd5a7e6c35ae0a8d33db8f9f44
Author: Cloud Hsu <cloudhsu921@gmail.com>
Date:   Tue Dec 29 08:48:40 2020 +0800

    Add key_point_face

commit a3ccb23caea6fff3bed7a674c28b907ee301f731
Author: Cloud Hsu <cloudhsu921@gmail.com>
Date:   Mon Dec 28 16:06:09 2020 +0800

    Add key_points_test

commit aa709161bfcbbce9d2d7d97c03a7809f717c5632
Author: Cloud Hsu <cloudhsu921@gmail.com>
Date:   Mon Dec 28 15:09:19 2020 +0800

    Add optimized_model

commit c00194b792a67ac86873ae8fa90c8ebc3a4165f2
Author: Cloud Hsu <cloudhsu921@gmail.com>
Date:   Mon Dec 28 15:02:44 2020 +0800

    Add model.

commit 3aeb3d4998028bfff0c5b41e5ce796a01923e71a
Author: Cloud Hsu <cloudhsu921@gmail.com>
Date:   Mon Dec 28 14:56:30 2020 +0800

    Fix class name error.

commit c47d0389b1c1621e997e61e4510b74f24d0f97c3
Author: Cloud Hsu <cloudhsu921@gmail.com>
Date:   Mon Dec 28 14:51:50 2020 +0800

    Fix class name error.

commit 7243328c0d46f13ef942d1e52edfe493481ce23b
Author: Cloud Hsu <cloudhsu921@gmail.com>
Date:   Mon Dec 28 14:43:57 2020 +0800

    Add test_tp_body

commit 7992f893a5942a989a170cade99bf95c51254610
Author: Cloud Hsu <cloudhsu921@gmail.com>
Date:   Mon Dec 28 13:36:31 2020 +0800

    Add tp body decorate

commit 2d64df0d80ee6c46fef474da74e719d42bf531a9
Author: Cloud Hsu <cloudhsu921@gmail.com>
Date:   Fri Dec 25 11:14:12 2020 +0800

    Add flag to post process and rename drawinfo to post_process.

commit a2e094fd4e116466b4132d766539e28e1a6a5059
Author: Cloud Hsu <cloudhsu921@gmail.com>
Date:   Fri Dec 25 11:06:16 2020 +0800

    Add decorator and refactor camera package.

commit 9ece1fedadb6ff54453e8df63827b4d5bdeb9ed3
Author: TylerTsou <tylertsou@gmail.com>
Date:   Wed Dec 23 14:11:02 2020 +0800

    fix test_camera 2D camera open device path error

commit cc7cb5158ef3d92947cac98589991b9327a3097c
Author: Cloud Hsu <cloudhsu921@gmail.com>
Date:   Wed Dec 23 13:23:00 2020 +0800

    modify yaml

commit 7577f8b00a9193b171a8ceeddbb7ba29273d244e
Author: Cloud Hsu <cloudhsu921@gmail.com>
Date:   Wed Dec 23 13:21:19 2020 +0800

    Add camera package and test_camera.

commit 500abc6f389aa70e4ff27e659c0a1b7e27db3fb2
Author: TylerTsou <tylertsou@gmail.com>
Date:   Fri Dec 18 14:26:37 2020 +0800

    add model folder for hp_server

commit 7d18bfbb7e4237953b16c30eef86d58902b9c226
Author: Andrew Tsai <andrew_tsai@sis.com>
Date:   Fri Dec 18 14:06:59 2020 +0800

    add model folder in headpose, make model link in model folder, modify code to new model path

commit 8b458b3f3d4e6815e81bb9a9df3bbfc39abada61
Author: Andrew Tsai <tsai.tsunghua@gmail.com>
Date:   Thu Dec 17 11:03:54 2020 +0800

    Remove the redundant file.

commit fa35f3dd7f09f20b44d6c5e71dee0e1ecd28279c
Author: Tyler Tsou <andrew_tsai@sis.com>
Date:   Thu Dec 17 10:57:30 2020 +0800

    add soft link of models in model folder

commit 5dd45a172800837d6ee1099397c63ffd6e9e5bb9
Author: Tyler Tsou <andrew_tsai@sis.com>
Date:   Thu Dec 17 10:54:49 2020 +0800

    add soft link of models in model folder

commit 759dee545cefcd84eaa0ae235f9fdbcdd0fe3b8e
Author: Tyler Tsou <andrew_tsai@sis.com>
Date:   Wed Dec 16 13:44:11 2020 +0800

    rename detect.py to detect_tp.py

commit de6cf7b1da65d5b4e1cfbcf088bd0c0b38f701d4
Author: Tyler Tsou <andrew_tsai@sis.com>
Date:   Wed Dec 16 13:42:53 2020 +0800

    modify body_detector method to using trt_pose

commit e67637c32817815d3865ea181bc1e63f6d8ac03f
Author: Tyler Tsou <andrew_tsai@sis.com>
Date:   Tue Dec 15 17:49:57 2020 +0800

    fix import path bug from touch to skyeye

commit db639f75ca996986b49084501197c0784d9464bd
Author: Tyler Tsou <andrew_tsai@sis.com>
Date:   Tue Dec 15 17:48:57 2020 +0800

    fix import path bug from touch to skyeye

commit 76c28e32a80f2f6015a4700bdd61e1e90b00aa6e
Author: zasz1019 <zasz1019@gmail.com>
Date:   Wed Dec 9 14:15:25 2020 +0800

    add option use_MJPEG=True to using MJPEG format to capture

commit 3bde6d170a7d764ed56d4286c4737daf874db9cf
Author: Andrew Tsai <tsai.tsunghua@gmail.com>
Date:   Mon Dec 7 13:38:05 2020 +0800

    Obtain the depth information of the camera image.

commit b0a5764786e59dcd55fa265a29de88425b3acab3
Author: Andrew Tsai <tsai.tsunghua@gmail.com>
Date:   Fri Dec 4 17:59:26 2020 +0800

    Realtime test the depth fusion.

commit 214e2d5d291db3fcf0cd90a75193d0816713b612
Author: Andrew Tsai <tsai.tsunghua@gmail.com>
Date:   Fri Dec 4 14:06:55 2020 +0800

    Remove the hand shadow in front of body.

commit 260fe2ffce188b2b05e3f2be20fa3490307fd885
Author: Andrew Tsai <tsai.tsunghua@gmail.com>
Date:   Fri Dec 4 13:38:26 2020 +0800

    Add DepthMatting class.

commit a7a146a4769c200b821026868939fce474707eb3
Author: Cloud Hsu <cloudhsu921@gmail.com>
Date:   Thu Dec 3 13:26:56 2020 +0800

    Add rs_diagnostic_client.

commit 62660350c93f8fe1fbfb548aa221da58366ddce7
Author: Cloud Hsu <cloudhsu921@gmail.com>
Date:   Wed Dec 2 16:40:04 2020 +0800

    Fix bug at y.

commit 8c21144abad3ae06b4fb90d794be5ed059f98432
Author: Cloud Hsu <cloudhsu921@gmail.com>
Date:   Wed Dec 2 11:39:34 2020 +0800

    Update realsense

commit 3fead4cdf77b0889f043e90e15378d0ceddf4e7b
Author: Cloud Hsu <cloudhsu921@gmail.com>
Date:   Wed Dec 2 09:00:14 2020 +0800

    Refactor some code.

commit aee244c09cb684ffac39e45601b9d08ecae89d9d
Author: Cloud Hsu <cloudhsu921@gmail.com>
Date:   Tue Dec 1 16:50:54 2020 +0800

    Add ratio_target in yaml.

commit eae7922a1656a2bc20ea8b1dbf4ae24ecf9656e9
Author: Cloud Hsu <cloudhsu921@gmail.com>
Date:   Tue Dec 1 16:34:52 2020 +0800

    Test work in server.

commit 7ec7495b242a8065e95587d9e92d4aba9af512a3
Author: Cloud Hsu <cloudhsu921@gmail.com>
Date:   Tue Dec 1 16:29:20 2020 +0800

    Fix bug at Y axis.

commit d44c760be469e7116ee7a20a6db9666353c74b19
Author: Cloud Hsu <cloudhsu921@gmail.com>
Date:   Mon Nov 30 16:18:43 2020 +0800

    Add headpose_rs and hp_rs_server.

commit 9e88974136633f3e269d663d46412fda4fc238fb
Author: Andrew Tsai <tsai.tsunghua@gmail.com>
Date:   Mon Nov 30 16:05:20 2020 +0800

    Add RsStereo class to support Realsense stereo camera.

commit 4820ec0fa7bcd17260071ac6fb4f5898ff5932ee
Author: Cloud Hsu <cloudhsu921@gmail.com>
Date:   Thu Nov 26 16:56:13 2020 +0800

    Update.

commit 25c5b1df39279159134d78bc1532c7251b0b2428
Author: Cloud Hsu <cloudhsu921@gmail.com>
Date:   Thu Nov 26 15:21:07 2020 +0800

    Add depth server and modify face data format.

commit 843ae53c9762ab1dcf4b819394feec4cad8ddd0b
Author: Cloud Hsu <cloudhsu921@gmail.com>
Date:   Wed Nov 25 13:47:58 2020 +0800

    Add real length and resolution.

commit 15bce3e97383c3bb1297e43105582cedbbee12fc
Author: Cloud Hsu <cloudhsu921@gmail.com>
Date:   Wed Nov 25 13:00:20 2020 +0800

    Update.

commit 2e67ef1538fe96be9f300b910b42d38ee1b4ad27
Author: Cloud Hsu <cloudhsu921@gmail.com>
Date:   Wed Nov 18 15:02:05 2020 +0800

    Add realsense.yaml

commit 4e3b105c5408f9314046447d2442e7f486e61bf1
Author: sis10011 <victor_hsieh@sis.com>
Date:   Wed Nov 18 14:27:25 2020 +0800

    remove redundancy file

commit faf3e1ef75a514303fd91df197e2bfa5e9457973
Author: sis10011 <victor_hsieh@sis.com>
Date:   Wed Nov 18 14:25:27 2020 +0800

    import software_protector as module

commit 7dd61ae5223b53b1a59cc4a3a151f8e5d1ee9440
Author: sis10011 <victor_hsieh@sis.com>
Date:   Tue Nov 17 14:49:03 2020 +0800

    change __is_release__ from True to False

commit c94ca3822e4345ea54fea3d31fefd1823c943b97
Author: sis10011 <victor_hsieh@sis.com>
Date:   Tue Nov 17 14:45:01 2020 +0800

    remove debug msg

commit 2a5d4f6874702c76bc8cd05d8a67c39466fa0d99
Merge: 131d644 cc5d8ad
Author: sis10011 <victor_hsieh@sis.com>
Date:   Tue Nov 17 14:33:22 2020 +0800

    Merge branch 'master' of https://bitbucket.org/tsaith/skyeye
    
    test software protector on ubuntu

commit 131d64435a8a206cc25751723897f1a2c8226d6d
Author: sis10011 <victor_hsieh@sis.com>
Date:   Tue Nov 17 14:32:40 2020 +0800

    test on ubuntu

commit cc5d8ad19e41e283d98ec39a6c434343e13a3703
Author: Tyler Tsou <andrew_tsai@sis.com>
Date:   Tue Nov 17 14:19:48 2020 +0800

    add tensortrt mtcnn face detect method to detect headpose

commit 17f534f1d76c485922da6adb27a377054d36311b
Merge: 0d676c2 08c911e
Author: sis10011 <victor_hsieh@sis.com>
Date:   Tue Nov 17 13:28:03 2020 +0800

    Merge branch 'master' of https://bitbucket.org/tsaith/skyeye

commit 0d676c263d5a238f0f04a93982b9d902e8ded947
Author: sis10011 <victor_hsieh@sis.com>
Date:   Tue Nov 17 13:27:06 2020 +0800

    add software protector in hp_server.main.py

commit 08c911ecf9f3c4b8dbf9e43e51b8bcb48571be3d
Author: Cloud Hsu <cloudhsu921@gmail.com>
Date:   Tue Nov 17 10:09:44 2020 +0800

    Add position on face center.

commit 77fb126337d263106ccda994e410bdcff472babd
Author: Andrew Tsai <tsai.tsunghua@gmail.com>
Date:   Mon Nov 16 16:09:06 2020 +0800

    Write a test code for depth fusion.

commit 236f3a54240c06e4fdc9b5c2e73f59b6cb07542c
Author: Andrew Tsai <tsai.tsunghua@gmail.com>
Date:   Mon Nov 16 15:38:07 2020 +0800

    Use warpPerspective() to increase the performance.

commit a429196a90ecb73db17963c7966626fae583b57e
Author: Andrew Tsai <tsai.tsunghua@gmail.com>
Date:   Fri Nov 13 16:44:15 2020 +0800

    Add DepthFusion().

commit ae09941f38c696e945eb21c02f5b2b175b4e0f17
Author: sis10011 <victor_hsieh@sis.com>
Date:   Fri Nov 13 15:32:46 2020 +0800

    first commit

commit 8fc36081e87e171087a0ecffc21a1d17ab7a5f2c
Author: Cloud Hsu <cloudhsu921@gmail.com>
Date:   Tue Nov 10 15:31:58 2020 +0800

    Add depth_detector

commit ebe1ee03224d9ec09f0b28ae750dc30de563e11e
Author: Cloud Hsu <cloudhsu921@gmail.com>
Date:   Wed Nov 4 14:45:05 2020 +0800

    Face detect with Intel realsense.

commit 3ee11f2f1640bb0a0aaefa8521a5cd7113673480
Author: TylerTsou <tylertsou@gmail.com>
Date:   Tue Nov 3 13:51:22 2020 +0800

    webcam upside-down option

commit 844c629352b8ea1ef3743851ed57b58bf229b862
Author: victor(jetson_nano) <victor_hsieh@sis.com>
Date:   Wed Oct 28 15:35:13 2020 +0800

    add get_serial_num and use first 6 digit of mac address as serial number

commit f2ba8bcd0d5161c573c26b122071b88721687ecf
Author: victor(jetson_nano) <victor_hsieh@sis.com>
Date:   Tue Oct 27 15:05:16 2020 +0800

    check serial before hp_server start, add parameter serial_num into inputs.yaml

commit 91439800ccb702f838d1ad53f261cd5fe990be8d
Author: sis10011 <victor_hsieh@sis.com>
Date:   Fri Oct 23 09:52:38 2020 +0800

    add gaze_u and gaze_v information

commit 8ff7245cf88f9250c23bd57cfde9f658c74916f1
Author: victor(jetson_nano) <victor_hsieh@sis.com>
Date:   Fri Oct 23 09:28:30 2020 +0800

    change color of id marker

commit 6533af29751687949629695ed048762ca3c66176
Author: TylerTsou <tylertsou@gmail.com>
Date:   Wed Oct 21 17:40:30 2020 +0800

    using full screen to show

commit d1c1efaa070e8ec9cb61675277937285fb2b99c2
Author: TylerTsou <tylertsou@gmail.com>
Date:   Tue Oct 20 16:41:12 2020 +0800

    headpose, hp server : add exposure adjust by input.yaml for different opencv versions

commit a024fb866f5556f971586691e6c9b60cf7dc8fab
Author: Andrew Tsai <tsai.tsunghua@gmail.com>
Date:   Wed Oct 7 13:10:07 2020 +0800

    Add readme file.

commit 1a6d9a3a472f36f194082041d1bd281eb9fe7eb4
Author: Andrew Tsai <tsai.tsunghua@gmail.com>
Date:   Tue Oct 6 16:47:23 2020 +0800

    Use DeepLabV3 to produce the mask.

commit 719a0f39169700ba437b7ef2190639b5985ab446
Author: Andrew Tsai <tsai.tsunghua@gmail.com>
Date:   Wed Sep 30 15:47:18 2020 +0800

    Draw the foreground.

commit db31dc7e74e1014b6605fc3d4a225c46700e89fe
Author: Andrew Tsai <tsai.tsunghua@gmail.com>
Date:   Tue Sep 29 17:55:04 2020 +0800

    Apply foreground onto the background image.

commit fc13d87024115083d4bbfebbb11201d628307015
Author: Andrew Tsai <tsai.tsunghua@gmail.com>
Date:   Tue Sep 29 17:52:45 2020 +0800

    Apply foreground onto the background image.

commit 146a4e279261a0ac68024a9fb73d6c6706a8498f
Author: victor(jetson_nano) <victor_hsieh@sis.com>
Date:   Mon Sep 28 17:08:47 2020 +0800

    print multi persons information

commit 5dc551caf2038364d25c75aea6c177ed3348e9b5
Author: Andrew Tsai <tsai.tsunghua@gmail.com>
Date:   Fri Sep 25 18:10:06 2020 +0800

    Add trimap generator.

commit 5e4fb8f18387981540997b3caaadbeb0f14b0e38
Merge: 331e2eb f99f978
Author: Andrew Tsai <tsai.tsunghua@gmail.com>
Date:   Thu Sep 24 17:57:20 2020 +0800

    Merge branch 'master' of bitbucket.org:tsaith/skyeye

commit 331e2eb615817ba7fa7181bde3c567a8e1e65551
Author: Andrew Tsai <tsai.tsunghua@gmail.com>
Date:   Thu Sep 24 17:56:56 2020 +0800

    Test image segmentation.

commit f99f9780a07e503df0d191a6030e200cea2832d4
Author: victor(jetson_nano) <victor_hsieh@sis.com>
Date:   Thu Sep 24 16:06:55 2020 +0800

    rename

commit e05938ab1e5a39b54adc01fac3bb7623f83737fb
Author: victor(jetson_nano) <victor_hsieh@sis.com>
Date:   Thu Sep 24 15:46:02 2020 +0800

    disable open_browser, change name from test.html to index.html

commit 89962a43d7031f4c77e487b1cbda4d1c0608f04f
Author: victor(jetson_nano) <victor_hsieh@sis.com>
Date:   Wed Sep 23 11:20:31 2020 +0800

    first commit

commit 8795070adeef3881b5fb0f3e3d0ecf289297f16f
Author: Andrew Tsai <tsai.tsunghua@gmail.com>
Date:   Thu Sep 10 11:00:17 2020 +0800

    Set 640x480 as default resolution.

commit 8c281c6b61b213d0ce4d6d25cec0a1b6c38b99d2
Author: Andrew Tsai <tsai.tsunghua@gmail.com>
Date:   Wed Sep 9 14:11:53 2020 +0800

    Test IpCam.

commit f4892874c3396bdbcbc28b3bd206c54b6bee0e24
Author: Andrew Tsai <tsai.tsunghua@gmail.com>
Date:   Tue Sep 8 14:56:13 2020 +0800

    Add input file.

commit 3222f45d93e0933acda4ebaab09dc28c3d41064a
Author: Andrew Tsai <tsai.tsunghua@gmail.com>
Date:   Tue Sep 8 11:31:36 2020 +0800

    Add HeadposeTracker.

commit 91b86bb1b4bf8f05be1252e348c5dd7ef7cd0bf9
Author: Andrew Tsai <tsai.tsunghua@gmail.com>
Date:   Mon Sep 7 14:19:23 2020 +0800

    Detect the point which nose is projected on the plane.

commit a575b1e3f0b3f64094592e9f26d4d0352e26026b
Author: Andrew Tsai <tsai.tsunghua@gmail.com>
Date:   Wed Aug 26 17:36:12 2020 +0800

    Convert BGR to RGB in FaceDetector.

commit 1cd460eada11a8b90f4fa0cc3c76a0072afc0d52
Author: Andrew Tsai <tsai.tsunghua@gmail.com>
Date:   Wed Aug 26 16:48:21 2020 +0800

    Add TextDrawer.

commit d5a7135e8325858bdf5b1a7842621569a8f8e5b8
Author: Andrew <tsai.tsunghua@gmail.com>
Date:   Tue Aug 25 17:19:26 2020 +0800

    Fix a bug of vendor_id for Windows.

commit 8e5ceebd565997121f2840fae60505122956ddb5
Author: Andrew Tsai <tsai.tsunghua@gmail.com>
Date:   Tue Aug 25 17:08:33 2020 +0800

    Add Headpose.

commit 4342faa49c35932da2dc73b6b4d12db1763fdd17
Author: Andrew Tsai <tsai.tsunghua@gmail.com>
Date:   Tue Aug 25 16:35:45 2020 +0800

    Add headpose.

commit d35d5ce088a57646d45421beb925f9baaa2c51ea
Author: Tyler Tsou <tylersou@gmail.com>
Date:   Thu Aug 13 14:50:45 2020 +0800

    move some necessary package to skyeye, modify path

commit 161ace2ae4a8e6054b005604bcceb8a965f8cfa6
Author: Tyler Tsou <andrew_tsai@sis.com>
Date:   Thu Aug 13 14:44:26 2020 +0800

    move some necessary package to skyeye, modify path

commit 8d37cd08bee8f82c6b3bee327aac779c5450755f
Author: Tyler Tsou <andrew_tsai@sis.com>
Date:   Thu Aug 13 14:35:50 2020 +0800

    move some necessary package to skyeye, modify path

commit 2637e5f82429c23e76fab304ec32d78046e8b998
Author: Tyler Tsou <andrew_tsai@sis.com>
Date:   Thu Aug 13 14:34:37 2020 +0800

    move some necessary package to skyeye, modify path

commit c08eaeb76bea3d664fb16bc9a634dc453409d995
Author: Tyler Tsou <tylersou@gmail.com>
Date:   Thu Aug 13 13:43:13 2020 +0800

    add exposure settings by PID/VID

commit 1010c3c9654301491183b2c3d8649f9b3739039a
Author: Andrew Tsai <tsai.tsunghua@gmail.com>
Date:   Wed Aug 12 17:52:22 2020 +0800

    Add recorder to save images.

commit 923aea2930bd1776b1f0c22bb4b161e52a273fdc
Author: Andrew Tsai <tsai.tsunghua@gmail.com>
Date:   Tue Aug 11 15:54:12 2020 +0800

    Refactor the show_settings.

commit 064057dbe9dfc9c375eee887d968639167852ff4
Author: Andrew Tsai <tsai.tsunghua@gmail.com>
Date:   Tue Aug 11 15:50:39 2020 +0800

    Move tools related with image to this repository.

commit efeb8bff6a7f2d9469f6b8523d0e0776f3d93b1e
Merge: 9b0662b e79426c
Author: Andrew Tsai <tsai.tsunghua@gmail.com>
Date:   Tue Aug 11 15:40:23 2020 +0800

    Merge branch 'master' of bitbucket.org:tsaith/skyeye

commit 9b0662b439a6004ee39b348b4e4fc13721cbb8e9
Author: Andrew Tsai <tsai.tsunghua@gmail.com>
Date:   Tue Aug 11 15:34:57 2020 +0800

    Move some tools from touch repository to this one.

commit e79426ca1703a04222b90e31a3d62d0b63bb30a6
Author: sis10011 <victor_hsieh@sis.com>
Date:   Wed Aug 5 18:12:02 2020 +0800

    remove all inputYamlReader

commit 0d3dc134db2e32f2d23fad986abd42a671baee47
Author: sis10011 <victor_hsieh@sis.com>
Date:   Wed Aug 5 17:02:51 2020 +0800

    first commit for parse yaml file

commit f6a0eadc95bebda6d3486c4850c84cb72d418178
Author: victor(jetson_nano) <victor_hsieh@sis.com>
Date:   Mon Aug 3 10:36:34 2020 +0800

    remove sys.append, using site-packages

commit 7ab55ce7895c267897f7bd5488e1da242a14074f
Author: sis10011 <victor_hsieh@sis.com>
Date:   Mon Jul 27 02:02:09 2020 +0800

    add grid into diagnostic_client and bs_diagnostic_client

commit 4352ae12e9bf9998399785ec507c0a2718d782fb
Author: victor(jetson_nano) <victor_hsieh@sis.com>
Date:   Tue Jul 21 16:05:24 2020 +0800

    add body_server and bs_server under tools

commit f79df70bcab98ac5242d927bd5a905d6315dd55d
Author: victor(jetson_nano) <victor_hsieh@sis.com>
Date:   Mon Jul 20 17:27:52 2020 +0800

    move from touch.git to skyeye.git

commit 6d4fb6a8f6bdfbfd4eef76f48ec68e355eff54e8
Author: Andrew Tsai <tsai.tsunghua@gmail.com>
Date:   Tue Apr 14 15:49:09 2020 +0800

    quick commit

commit d6220a016cdf19e8ce7b415c231ee7fba5bf0307
Author: Andrew Tsai <tsai.tsunghua@gmail.com>
Date:   Tue Apr 14 14:21:17 2020 +0800

    initial commit
